…
© EuroGeographics 2026, Istituto Geografico Militare (IGM), Italy;
[Licence](https://www.mapsforeurope.org/licence)

``` r

altitude_values <- terra::extract(altitude, terra::vect(data_sites))
data_sites <- data_sites |>
  mutate("Altitude (m)" = altitude_values$eurodem)
data_sites
#> Simple feature collection with 200 features and 2 fields
#> Geometry type: POINT
#> Dimension:     XY
#> Bounding box:  xmin: 9.809499 ymin: 42.32483 xmax: 12.08963 ymax: 44.32464
#> Geodetic CRS:  WGS 84
#> # A tibble: 200 × 3
#>    PlotObservationID            geometry `Altitude (m)`
#>  * <chr>                     <POINT [°]>          <dbl>
#>  1 JZ37               (9.93798 44.32464)             NA
#>  2 FR49              (11.09287 43.91546)             NA
#>  3 PT45              (11.65339 43.09104)             NA
#>  4 ZH63              (10.53301 43.73897)             NA
#>  5 TF93              (10.40239 44.23978)             NA
#>  6 KG68              (10.40203 44.24087)             NA
#>  7 QJ27               (10.40635 44.2413)             NA
#>  8 JN90              (10.40602 44.24296)             NA
#>  9 ZM18              (10.66071 44.12734)             NA
#> 10 BQ20               (10.6589 44.12456)             NA
#> # ℹ 190 more rows
```
…
