…
### Load the example data.

The example data include the species data with the vegetation surveys
and the sites data with further information to the location of the
surveys.

First, the vegetation surveys:

``` r

data_species <- read_csv(
  system.file("extdata", "data_example_species.csv", package = "RESY")
  )
data_species
#> # A tibble: 3,580 × 4
#>     ...1 RELEVE_NR cover species                                             
#>    <dbl> <chr>     <dbl> <chr>                                               
#>  1     1 HU32        0.1 Dryopteris filix-mas (L.) Schott                    
#>  2     2 HU32        0.1 Cephalanthera longifolia (L.) Fritsch               
#>  3     3 HU32        0.5 Prenanthes purpurea L.                              
#>  4     4 HU32        0.5 Anemone nemorosa L.                                 
#>  5     5 HU32        0.5 Epipactis helleborine (L.) Crantz subsp. helleborine
#>  6     6 HU32        0.5 Sorbus aucuparia L. subsp. aucuparia                
#>  7     7 HU32       87.5 Fagus sylvatica L.                                  
#>  8     8 HU32        3   Rubus hirtus Waldst. & Kit.                         
#>  9     9 HU32        3   Abies alba Mill.                                    
#> 10    10 HU32        3   Oxalis acetosella L.                                
#> # ℹ 3,570 more rows
```
…
``` r

data_sites <- read_csv(
   system.file("extdata", "data_example_sites.csv", package = "RESY")
   ) |>
   select(-"cover") |>
   st_as_sf(coords = c("Longitude", "Latitude"), crs = 4326)
data_sites
#> Simple feature collection with 200 features and 2 fields
#> Geometry type: POINT
#> Dimension:     XY
#> Bounding box:  xmin: 9.809499 ymin: 42.32483 xmax: 12.08963 ymax: 44.32464
#> Geodetic CRS:  WGS 84
#> # A tibble: 200 × 3
#>     ...1 RELEVE_NR            geometry
#>  * <dbl> <chr>             <POINT [°]>
#>  1     1 JZ37       (9.93798 44.32464)
#>  2     2 FR49      (11.09287 43.91546)
#>  3     3 PT45      (11.65339 43.09104)
#>  4     4 ZH63      (10.53301 43.73897)
#>  5     5 TF93      (10.40239 44.23978)
#>  6     6 KG68      (10.40203 44.24087)
#>  7     7 QJ27       (10.40635 44.2413)
#>  8     8 JN90      (10.40602 44.24296)
#>  9     9 ZM18      (10.66071 44.12734)
#> 10    10 BQ20       (10.6589 44.12456)
#> # ℹ 190 more rows
```
…
ecoregions (`Ecoreg`) and country (`Country`) columns. This could be the
vegetation surveys on islands which is not covered by the base map.

### Additional info of ecoregions and countries

Here are the additional information of ecoregions and countries which
were successfully identified:

``` r

outcome_sites
#> # A tibble: 200 × 9
#>    RELEVE_NR Coast_EEA Dunes_Bohn Ecoreg Ecoreg_name          Country Country_ID
#>    <chr>     <chr>     <chr>       <dbl> <chr>                <chr>   <chr>     
#>  1 JZ37      N_COAST   N_DUNES       795 Italian sclerophyll… Italy   IT        
#>  2 FR49      N_COAST   N_DUNES       795 Italian sclerophyll… Italy   IT        
#>  3 PT45      N_COAST   N_DUNES       795 Italian sclerophyll… Italy   IT        
#>  4 ZH63      N_COAST   N_DUNES       795 Italian sclerophyll… Italy   IT        
#>  5 TF93      N_COAST   N_DUNES       644 Appenine deciduous … Italy   IT        
#>  6 KG68      N_COAST   N_DUNES       644 Appenine deciduous … Italy   IT        
#>  7 QJ27      N_COAST   N_DUNES       644 Appenine deciduous … Italy   IT        
#>  8 JN90      N_COAST   N_DUNES       644 Appenine deciduous … Italy   IT        
#>  9 ZM18      N_COAST   N_DUNES       644 Appenine deciduous … Italy   IT        
#> 10 BQ20      N_COAST   N_DUNES       644 Appenine deciduous … Italy   IT        
#> # ℹ 190 more rows
#> # ℹ 2 more variables: Longitude <dbl>, Latitude <dbl>
```

### Missing info

Let us see which vegetation surveys could not get an ecoregion and
country:

``` r

outcome_sites |>
   filter(is.na(Ecoreg))
#> # A tibble: 23 × 9
#>    RELEVE_NR Coast_EEA Dunes_Bohn Ecoreg Ecoreg_name Country Country_ID
#>    <chr>     <chr>     <chr>       <dbl> <chr>       <chr>   <chr>     
#>  1 OR48      MED_COAST N_DUNES        NA NA          NA      NA        
#>  2 EQ56      MED_COAST N_DUNES        NA NA          NA      NA        
#>  3 IS69      MED_COAST N_DUNES        NA NA          NA      NA        
#>  4 JP48      MED_COAST N_DUNES        NA NA          NA      NA        
#>  5 MF17      MED_COAST N_DUNES        NA NA          NA      NA        
#>  6 SA50      MED_COAST N_DUNES        NA NA          NA      NA        
#>  7 DR59      MED_COAST N_DUNES        NA NA          NA      NA        
#>  8 QI21      MED_COAST N_DUNES        NA NA          NA      NA        
#>  9 PK58      MED_COAST N_DUNES        NA NA          NA      NA        
#> 10 OY37      MED_COAST N_DUNES        NA NA          NA      NA        
#> # ℹ 13 more rows
#> # ℹ 2 more variables: Longitude <dbl>, Latitude <dbl>
```
…
### Checked species names

Let’s have a look on the checked and transformed species names. There
are for example no author names anymore:

``` r

outcome_species
#> # A tibble: 3,580 × 6
#>     ...1 RELEVE_NR cover species                      Name_matched Accepted_name
#>    <dbl> <chr>     <dbl> <chr>                        <chr>        <chr>        
#>  1     1 HU32        0.1 Dryopteris filix-mas (L.) S… Dryopteris … Dryopteris f…
#>  2     2 HU32        0.1 Cephalanthera longifolia (L… Cephalanthe… Cephalanther…
#>  3     3 HU32        0.5 Prenanthes purpurea L.       Prenanthes … Prenanthes p…
#>  4     4 HU32        0.5 Anemone nemorosa L.          Anemone nem… Anemonoides …
#>  5     5 HU32        0.5 Epipactis helleborine (L.) … Epipactis h… Epipactis he…
#>  6     6 HU32        0.5 Sorbus aucuparia L. subsp. … Sorbus aucu… Sorbus aucup…
#>  7     7 HU32       87.5 Fagus sylvatica L.           Fagus sylva… Fagus sylvat…
#>  8     8 HU32        3   Rubus hirtus Waldst. & Kit.  Rubus hirtus Rubus hirtus 
#>  9     9 HU32        3   Abies alba Mill.             Abies alba   Abies alba   
#> 10    10 HU32        3   Oxalis acetosella L.         Oxalis acet… Oxalis aceto…
#> # ℹ 3,570 more rows
```
…
