RESY EUNIS habitat classifications • RESY
…
Load the example data.

The example data include the species data with the vegetation surveys
and the sites data with further information to the location of the
surveys.

First, the vegetation surveys:

data_species <- read_csv(system.file("extdata", "data_example_species.csv", package = "RESY"), skip = 0)
data_species
#> # A tibble: 3,580 × 3
#>    PlotObservationID cover species                                             
#>    <chr>             <dbl> <chr>                                               
#>  1 HU32                0.1 Dryopteris filix-mas (L.) Schott                    
#>  2 HU32                0.1 Cephalanthera longifolia (L.) Fritsch               
#>  3 HU32                0.5 Prenanthes purpurea L.                              
#>  4 HU32                0.5 Anemone nemorosa L.                                 
#>  5 HU32                0.5 Epipactis helleborine (L.) Crantz subsp. helleborine
#>  6 HU32                0.5 Sorbus aucuparia L. subsp. aucuparia                
#>  7 HU32               87.5 Fagus sylvatica L.                                  
#>  8 HU32                3   Rubus hirtus Waldst. & Kit.                         
#>  9 HU32                3   Abies alba Mill.                                    
#> 10 HU32                3   Oxalis acetosella L.                                
#> # ℹ 3,570 more rows
…
Second, the sites data:

data_sites <- read_csv(
   system.file("extdata", "data_example_sites.csv", package = "RESY")
   ) |>
   select(-"cover") |>
   st_as_sf(coords = c("Longitude", "Latitude"), crs = 4326)
data_sites
#> Simple feature collection with 200 features and 1 field
#> Geometry type: POINT
#> Dimension:     XY
#> Bounding box:  xmin: 9.809499 ymin: 42.32483 xmax: 12.08963 ymax: 44.32464
#> Geodetic CRS:  WGS 84
#> # A tibble: 200 × 2
#>    PlotObservationID            geometry
#>  * <chr>                     <POINT [°]>
#>  1 JZ37               (9.93798 44.32464)
#>  2 FR49              (11.09287 43.91546)
#>  3 PT45              (11.65339 43.09104)
#>  4 ZH63              (10.53301 43.73897)
#>  5 TF93              (10.40239 44.23978)
#>  6 KG68              (10.40203 44.24087)
#>  7 QJ27               (10.40635 44.2413)
#>  8 JN90              (10.40602 44.24296)
#>  9 ZM18              (10.66071 44.12734)
#> 10 BQ20               (10.6589 44.12456)
#> # ℹ 190 more rows
…
We have three warnings: The column Altitude (m) is
missing and this could not be covered by
resy_harmonize_eunis(), but we provide a
vignette("Get altitude data"). NAs are in the
ecoregions (Ecoreg) and country (Country)
columns. This could be the vegetation surveys on islands which is not
covered by the base map.

Inspect additional data

Here are the additional information of ecoregions and countries which
were successfully identified:

outcome_sites
#> # A tibble: 200 × 9
#>    PlotObservationID Coast_EEA Dunes_Bohn Ecoreg Ecoreg_name  Country Country_ID
#>    <chr>             <chr>     <chr>       <dbl> <chr>        <chr>   <chr>     
#>  1 JZ37              N_COAST   N_DUNES       795 Italian scl… Italy   IT        
#>  2 FR49              N_COAST   N_DUNES       795 Italian scl… Italy   IT        
#>  3 PT45              N_COAST   N_DUNES       795 Italian scl… Italy   IT        
#>  4 ZH63              N_COAST   N_DUNES       795 Italian scl… Italy   IT        
#>  5 TF93              N_COAST   N_DUNES       644 Appenine de… Italy   IT        
#>  6 KG68              N_COAST   N_DUNES       644 Appenine de… Italy   IT        
#>  7 QJ27              N_COAST   N_DUNES       644 Appenine de… Italy   IT        
#>  8 JN90              N_COAST   N_DUNES       644 Appenine de… Italy   IT        
#>  9 ZM18              N_COAST   N_DUNES       644 Appenine de… Italy   IT        
#> 10 BQ20              N_COAST   N_DUNES       644 Appenine de… Italy   IT        
#> # ℹ 190 more rows
#> # ℹ 2 more variables: Longitude <dbl>, Latitude <dbl>

Missing info

Let us see which vegetation surveys could not get an ecoregion and
country:

outcome_sites |>
   filter(is.na(Ecoreg))
#> # A tibble: 23 × 9
#>    PlotObservationID Coast_EEA Dunes_Bohn Ecoreg Ecoreg_name Country Country_ID
#>    <chr>             <chr>     <chr>       <dbl> <chr>       <chr>   <chr>     
#>  1 OR48              MED_COAST N_DUNES        NA NA          Italy   IT        
#>  2 EQ56              MED_COAST N_DUNES        NA NA          Italy   IT        
#>  3 IS69              MED_COAST N_DUNES        NA NA          Italy   IT        
#>  4 JP48              MED_COAST N_DUNES        NA NA          Italy   IT        
#>  5 MF17              MED_COAST N_DUNES        NA NA          Italy   IT        
#>  6 SA50              MED_COAST N_DUNES        NA NA          Italy   IT        
#>  7 DR59              MED_COAST N_DUNES        NA NA          Italy   IT        
#>  8 QI21              MED_COAST N_DUNES        NA NA          Italy   IT        
#>  9 PK58              MED_COAST N_DUNES        NA NA          Italy   IT        
#> 10 OY37              MED_COAST N_DUNES        NA NA          Italy   IT        
#> # ℹ 13 more rows
#> # ℹ 2 more variables: Longitude <dbl>, Latitude <dbl>
…
Checked species names

Let’s have a look on the checked and transformed species names. There
are for example no author names anymore:

outcome_species
#> # A tibble: 1,006 × 3
#>    TaxonName                                matched canonical                  
#>    <chr>                                    <lgl>   <chr>                      
#>  1 Dryopteris filix-mas                     TRUE    Dryopteris filix-mas aggr. 
#>  2 Cephalanthera longifolia                 TRUE    Cephalanthera longifolia   
#>  3 Prenanthes purpurea                      TRUE    Prenanthes purpurea        
#>  4 Anemone nemorosa                         TRUE    Anemone nemorosa           
#>  5 Epipactis helleborine subsp. helleborine TRUE    Epipactis helleborine aggr.
#>  6 Sorbus aucuparia subsp. aucuparia        TRUE    Sorbus aucuparia           
#>  7 Fagus sylvatica                          TRUE    Fagus sylvatica            
#>  8 Rubus hirtus                             TRUE    Rubus fruticosus aggr.     
#>  9 Abies alba                               TRUE    Abies alba                 
#> 10 Oxalis acetosella                        TRUE    Oxalis acetosella          
#> # ℹ 996 more rows
…
Inspect the results

Long table of candidates for all plots

You can see that the plot AM30 was classified with two EUNIS habitat
types, but with different priorities.

cand <- resy_candidates(res, top_n = 3) |>
  tibble()
cand
#> # A tibble: 321 × 4
#>    plot_id type  priority priority_rank
#>    <chr>   <chr> <ord>            <int>
#>  1 AE28    R     1                    1
#>  2 AM30    T     3                    3
#>  3 AM30    T17   4                    4
#>  4 AN57    T     3                    3
#>  5 BE71    T     3                    3
#>  6 BF83    P     1                    1
#>  7 BF83    P3b   2                    2
#>  8 BK34    R     1                    1
#>  9 BK70    P     1                    1
#> 10 BK70    P3b   2                    2
#> # ℹ 311 more rows
…
